(kicad_pcb (version 20221018) (generator pcbnew)

  (general
    (thickness 1.6)
  )

  (paper "A4")
  (layers
    (0 "F.Cu" signal)
    (31 "B.Cu" signal)
    (32 "B.Adhes" user "B.Adhesive")
    (33 "F.Adhes" user "F.Adhesive")
    (34 "B.Paste" user)
    (35 "F.Paste" user)
    (36 "B.SilkS" user "B.Silkscreen")
    (37 "F.SilkS" user "F.Silkscreen")
    (38 "B.Mask" user)
    (39 "F.Mask" user)
    (40 "Dwgs.User" user "User.Drawings")
    (41 "Cmts.User" user "User.Comments")
    (42 "Eco1.User" user "User.Eco1")
    (43 "Eco2.User" user "User.Eco2")
    (44 "Edge.Cuts" user)
    (45 "Margin" user)
    (46 "B.CrtYd" user "B.Courtyard")
    (47 "F.CrtYd" user "F.Courtyard")
    (48 "B.Fab" user)
    (49 "F.Fab" user)
    (50 "User.1" user)
    (51 "User.2" user)
    (52 "User.3" user)
    (53 "User.4" user)
    (54 "User.5" user)
    (55 "User.6" user)
    (56 "User.7" user)
    (57 "User.8" user)
    (58 "User.9" user)
  )

  (setup
    (stackup
      (layer "F.SilkS" (type "Top Silk Screen"))
      (layer "F.Paste" (type "Top Solder Paste"))
      (layer "F.Mask" (type "Top Solder Mask") (thickness 0.01))
      (layer "F.Cu" (type "copper") (thickness 0.035))
      (layer "dielectric 1" (type "core") (thickness 1.51) (material "FR4") (epsilon_r 4.5) (loss_tangent 0.02))
      (layer "B.Cu" (type "copper") (thickness 0.035))
      (layer "B.Mask" (type "Bottom Solder Mask") (thickness 0.01))
      (layer "B.Paste" (type "Bottom Solder Paste"))
      (layer "B.SilkS" (type "Bottom Silk Screen"))
      (copper_finish "None")
      (dielectric_constraints no)
    )
    (pad_to_mask_clearance 0)
    (aux_axis_origin 50 70)
    (pcbplotparams
      (layerselection 0x000f0f0_ffffffff)
      (plot_on_all_layers_selection 0x0000000_00000000)
      (disableapertmacros false)
      (usegerberextensions true)
      (usegerberattributes true)
      (usegerberadvancedattributes true)
      (creategerberjobfile true)
      (dashed_line_dash_ratio 12.000000)
      (dashed_line_gap_ratio 3.000000)
      (svgprecision 6)
      (plotframeref false)
      (viasonmask false)
      (mode 1)
      (useauxorigin false)
      (hpglpennumber 1)
      (hpglpenspeed 20)
      (hpglpendiameter 15.000000)
      (dxfpolygonmode true)
      (dxfimperialunits false)
      (dxfusepcbnewfont true)
      (psnegative false)
      (psa4output false)
      (plotreference true)
      (plotvalue false)
      (plotinvisibletext false)
      (sketchpadsonfab false)
      (subtractmaskfromsilk true)
      (outputformat 1)
      (mirror false)
      (drillshape 0)
      (scaleselection 1)
      (outputdirectory "/home/jwright/Downloads/pb_switch_grb/")
    )
  )

  (net 0 "")
  (net 1 "Net-(J1-PadS)")
  (net 2 "Net-(J1-PadT)")
  (net 3 "unconnected-(SW1-Pad2)")

  (footprint "" (layer "F.Cu")
    (tstamp 066a5f86-fc59-4d2a-b3fd-f5a7ef645127)
    (at 73.06 67.12)
    (fp_text reference "" (at 0 0) (layer "F.SilkS")
        (effects (font (size 1.27 1.27) (thickness 0.15)))
      (tstamp bf43be24-7149-4019-9b8f-81e8901a2c2a)
    )
    (fp_text value "" (at 0 0) (layer "F.SilkS")
        (effects (font (size 1.27 1.27) (thickness 0.15)))
      (tstamp 39bff613-3304-4d8c-8d6c-272f8e4a4f29)
    )
    (pad "" np_thru_hole circle (at -1.06 -0.12) (size 2.4 2.4) (drill 2.4) (layers "F&B.Cu" "*.Mask") (tstamp f1830a1b-f0cc-47ae-a2c9-679c82032f14))
  )

  (footprint "" (layer "F.Cu")
    (tstamp 245ce96e-de23-4c93-af58-f40e4cd70189)
    (at 53 48)
    (fp_text reference "" (at 0 0) (layer "F.SilkS")
        (effects (font (size 1.27 1.27) (thickness 0.15)))
      (tstamp ef79b516-f387-4bff-98aa-61eff96e72d2)
    )
    (fp_text value "" (at 0 0) (layer "F.SilkS")
        (effects (font (size 1.27 1.27) (thickness 0.15)))
      (tstamp 13f30964-a0e5-4b66-a3b0-82966c8576ce)
    )
    (pad "" np_thru_hole circle (at 2 0) (size 2.4 2.4) (drill 2.4) (layers "F&B.Cu" "*.Mask") (tstamp 3fcf515a-b2e5-4769-a263-706606d34687))
  )

  (footprint "" (layer "F.Cu")
    (tstamp 46678bab-c136-4aa3-8218-09be9247e09c)
    (at 72 47.5)
    (fp_text reference "" (at 0 0) (layer "F.SilkS")
        (effects (font (size 1.27 1.27) (thickness 0.15)))
      (tstamp b1812e93-6d07-48bc-8440-4307c7b13cf3)
    )
    (fp_text value "" (at 0 0) (layer "F.SilkS")
        (effects (font (size 1.27 1.27) (thickness 0.15)))
      (tstamp 43b7566d-9d7e-4cfd-b147-962b97763262)
    )
    (pad "" np_thru_hole circle (at 0 0.5) (size 2.4 2.4) (drill 2.4) (layers "F&B.Cu" "*.Mask") (tstamp 10d427aa-bc00-4152-83ca-5522fa5f5b70))
  )

  (footprint "User_Global_Library:35RAPC2AHN2" (layer "F.Cu")
    (tstamp 72635b6d-f5d1-44fe-86b5-9bebc2da5d46)
    (at 55.05 57.5)
    (property "Sheetfile" "push-button-switch.kicad_sch")
    (property "Sheetname" "")
    (path "/ca456eaa-da1c-4cb2-9096-35d92072f541")
    (attr through_hole)
    (fp_text reference "J1" (at 1 -7 unlocked) (layer "F.SilkS")
        (effects (font (size 1 1) (thickness 0.15)))
      (tstamp 30d56621-b469-406c-9984-c3e3f5682099)
    )
    (fp_text value "AudioJack2_Custom" (at 0 8 unlocked) (layer "F.Fab")
        (effects (font (size 1 1) (thickness 0.15)))
      (tstamp 2d46fe9d-6197-459f-9a8a-0a5847b8284e)
    )
    (fp_text user "${REFERENCE}" (at 0 9.5 unlocked) (layer "F.Fab")
        (effects (font (size 1 1) (thickness 0.15)))
      (tstamp 09a447ea-a474-464d-93b1-2e75823d2422)
    )
    (fp_line (start -7.5 -6) (end 7.5 -6)
      (stroke (width 0.12) (type solid)) (layer "F.SilkS") (tstamp 88c717b5-9d30-4492-808e-672866835825))
    (fp_line (start 7.5 6) (end -7.5 6)
      (stroke (width 0.12) (type solid)) (layer "F.SilkS") (tstamp 9be7af55-7416-4471-b58a-d47d5b68b4d7))
    (fp_circle (center -2.5 0) (end -2.2 0)
      (stroke (width 0.12) (type solid)) (fill solid) (layer "F.SilkS") (tstamp 2e3d761c-787b-49c4-974d-53b6b5874d77))
    (fp_rect (start -7.5 -6) (end 7.5 6)
      (stroke (width 0.05) (type solid)) (fill none) (layer "F.CrtYd") (tstamp 98ae3522-7436-463f-a909-9d4b00f3eb57))
    (pad "" np_thru_hole circle (at -3.5 -5) (size 1.2 1.2) (drill 1.2) (layers "F&B.Cu" "*.Mask") (tstamp abd95b6e-6da6-40aa-ad7b-1c892f304193))
    (pad "" np_thru_hole circle (at -3.5 5) (size 1.2 1.2) (drill 1.2) (layers "F&B.Cu" "*.Mask") (tstamp 1c4e85e4-7b45-4c27-add1-7d594a2a5056))
    (pad "" np_thru_hole circle (at -1 -5) (size 1.2 1.2) (drill 1.2) (layers "F&B.Cu" "*.Mask") (tstamp f88667e0-8c7a-470f-be0d-ea87277bf27a))
    (pad "" np_thru_hole circle (at -1 5) (size 1.2 1.2) (drill 1.2) (layers "F&B.Cu" "*.Mask") (tstamp 71d40942-47b0-4039-8e56-f2b2541cd30a))
    (pad "" np_thru_hole circle (at 4 0) (size 1.2 1.2) (drill 1.2) (layers "F&B.Cu" "*.Mask") (tstamp 7fadd522-ad00-4095-a77d-c0d82a2db7cb))
    (pad "" np_thru_hole circle (at 4 2.5) (size 1 1) (drill 1) (layers "F&B.Cu" "*.Mask") (tstamp ae02e6ad-b22a-4981-9b68-ea9b5483cbf0))
    (pad "S" thru_hole circle (at -1 0) (size 2.25 2.25) (drill 1) (layers "*.Cu" "*.Mask")
      (net 1 "Net-(J1-PadS)") (pintype "power_out") (tstamp 6ebb6507-8d74-4152-91b7-a20860f197c8))
    (pad "T" thru_hole circle (at 4 5) (size 2.25 2.25) (drill 1) (layers "*.Cu" "*.Mask")
      (net 2 "Net-(J1-PadT)") (pintype "passive") (tstamp 63e9d957-99a5-4880-9c85-0148cc021d5e))
  )

  (footprint "User_Global_Library:SPDT_Limit_Micro_Switch" (layer "F.Cu")
    (tstamp 8c497335-9f19-4d8f-81b9-d3f6e5560190)
    (at 69.25 57.5)
    (property "Sheetfile" "push-button-switch.kicad_sch")
    (property "Sheetname" "")
    (path "/960a9898-3ca5-4490-8d53-80052f9a1810")
    (attr through_hole)
    (fp_text reference "SW1" (at 4.41 -4.16 unlocked) (layer "F.SilkS")
        (effects (font (size 1 1) (thickness 0.15)))
      (tstamp 3bc4ce27-3fd6-45fa-a96b-714d66fa96f2)
    )
    (fp_text value "SW_Push_SPDT_Custom" (at 0 4.5 unlocked) (layer "F.Fab")
        (effects (font (size 1 1) (thickness 0.15)))
      (tstamp 96fff329-b5db-4ad4-ae71-9ab9d227a501)
    )
    (fp_text user "${REFERENCE}" (at 0 6 unlocked) (layer "F.Fab")
        (effects (font (size 1 1) (thickness 0.15)))
      (tstamp 1dc9fd2b-22d6-4000-9594-efdee4856ffc)
    )
    (fp_line (start -6.4 -2.9) (end 6.4 -2.9)
      (stroke (width 0.12) (type solid)) (layer "F.SilkS") (tstamp c11e2ac0-911a-4bce-874c-630ca4b1d10e))
    (fp_line (start -6.4 2.9) (end 6.4 2.9)
      (stroke (width 0.12) (type solid)) (layer "F.SilkS") (tstamp d6383af0-2339-4122-b61d-f04479a45b09))
    (fp_circle (center 3.75 0) (end 4.05 0)
      (stroke (width 0.12) (type solid)) (fill solid) (layer "F.SilkS") (tstamp b7eb66e4-8829-4e73-b518-de56e1b522c8))
    (fp_rect (start -6.5 -3) (end 6.5 3)
      (stroke (width 0.05) (type solid)) (fill none) (layer "F.CrtYd") (tstamp 2f20aff3-90f6-4516-822b-76b36992eaee))
    (pad "1" thru_hole circle (at 5.08 0) (size 2.4 2.4) (drill 1.2) (layers "*.Cu" "*.Mask")
      (net 1 "Net-(J1-PadS)") (pinfunction "A") (pintype "passive") (tstamp 7f9f96a5-7b4a-4fb2-959b-037acd5fd04c))
    (pad "2" thru_hole circle (at -5.08 0) (size 2.4 2.4) (drill 1.2) (layers "*.Cu" "*.Mask")
      (net 3 "unconnected-(SW1-Pad2)") (pinfunction "B") (pintype "no_connect") (tstamp 4c9d3834-1a48-47e5-b448-e23010c05c8f))
    (pad "3" thru_hole circle (at 0 0) (size 2.4 2.4) (drill 1.2) (layers "*.Cu" "*.Mask")
      (net 2 "Net-(J1-PadT)") (pinfunction "C") (pintype "passive") (tstamp b5397d04-5aef-4a29-8070-dc257a5fd34b))
  )

  (footprint "" (layer "F.Cu")
    (tstamp e09afd86-2143-4e84-8ea7-5c1a72bd1bca)
    (at 53 67)
    (fp_text reference "" (at 0 0) (layer "F.SilkS")
        (effects (font (size 1.27 1.27) (thickness 0.15)))
      (tstamp 6a955fc7-39d9-4c75-9a69-676ca8c0b9b2)
    )
    (fp_text value "" (at 0 0) (layer "F.SilkS")
        (effects (font (size 1.27 1.27) (thickness 0.15)))
      (tstamp e8314017-7be6-4011-9179-37449a29b311)
    )
    (pad "" np_thru_hole circle (at 2 0) (size 2.4 2.4) (drill 2.4) (layers "F&B.Cu" "*.Mask") (tstamp 057db2dc-72c2-416d-b044-d77e2c07e2bc))
  )

  (gr_line (start 51 55.5) (end 51 59.5)
    (stroke (width 0.1) (type default)) (layer "Edge.Cuts") (tstamp 20079499-1612-4cf9-a443-81877e9bf47b))
  (gr_line (start 50 59.5) (end 50 70)
    (stroke (width 0.1) (type default)) (layer "Edge.Cuts") (tstamp 3cbfd5fc-9f50-4458-b0d8-29dc8b02ad9c))
  (gr_line (start 77 45) (end 77 70)
    (stroke (width 0.1) (type solid)) (layer "Edge.Cuts") (tstamp 3dbfc44a-5484-4660-941b-bfd25c98c6f7))
  (gr_line (start 50 45) (end 50 55.5)
    (stroke (width 0.1) (type default)) (layer "Edge.Cuts") (tstamp 4dbfba6e-b277-46ea-9641-fbfdf991c3c5))
  (gr_line (start 51 59.5) (end 50 59.5)
    (stroke (width 0.1) (type default)) (layer "Edge.Cuts") (tstamp 6ec4899d-5079-4fd1-8cd3-1fbfe8d813d4))
  (gr_line (start 77 70) (end 50 70)
    (stroke (width 0.1) (type solid)) (layer "Edge.Cuts") (tstamp 7342e06c-356f-43be-896a-e755bb32e8e5))
  (gr_line (start 50 45) (end 77 45)
    (stroke (width 0.1) (type solid)) (layer "Edge.Cuts") (tstamp 920f617b-c90e-45bb-96a4-14c4c9804e19))
  (gr_line (start 51 55.5) (end 50 55.5)
    (stroke (width 0.1) (type default)) (layer "Edge.Cuts") (tstamp 9c5b4441-444a-4c42-abe0-cc7a91ddf2f9))
  (gr_text "Version 2" (at 60 48) (layer "F.SilkS") (tstamp 9b6ed18a-ac73-4039-a3e7-ad3d82b7499d)
    (effects (font (size 1 1) (thickness 0.15)) (justify left bottom))
  )

  (segment (start 57.8 53.75) (end 70.58 53.75) (width 1) (layer "B.Cu") (net 1) (tstamp 1dc74064-815d-4729-b2ca-3e55d6a2077f))
  (segment (start 54.05 57.5) (end 57.8 53.75) (width 1) (layer "B.Cu") (net 1) (tstamp 203185e2-430f-4757-bb36-cd8f84517a2e))
  (segment (start 74.3 57.4) (end 74.3 57.5) (width 1) (layer "B.Cu") (net 1) (tstamp 2c0cecce-b387-4d69-b748-f19adb4b9a40))
  (segment (start 70.58 53.75) (end 74.33 57.5) (width 1) (layer "B.Cu") (net 1) (tstamp d9beb8db-65b0-4581-9dc5-4543805f03c1))
  (segment (start 64.25 62.5) (end 69.25 57.5) (width 1) (layer "B.Cu") (net 2) (tstamp 23f669a0-9b0f-499e-9aaf-aacc2b68bfb7))
  (segment (start 59.05 62.5) (end 64.25 62.5) (width 1) (layer "B.Cu") (net 2) (tstamp a13db3a1-c977-4a57-9ade-4d0191d42d84))

  (zone (net 0) (net_name "") (layer "F.Cu") (tstamp 9397f066-146e-4896-a893-48ef11276451) (name "FILL") (hatch edge 0.508)
    (connect_pads (clearance 0.5))
    (min_thickness 0.5) (filled_areas_thickness no)
    (fill yes (thermal_gap 0.508) (thermal_bridge_width 0.508))
    (polygon
      (pts
        (xy 76.99 70)
        (xy 50 70)
        (xy 50 45)
        (xy 77.01 45)
      )
    )
    (filled_polygon
      (layer "F.Cu")
      (island)
      (pts
        (xy 76.645788 45.219454)
        (xy 76.72657 45.27343)
        (xy 76.780546 45.354212)
        (xy 76.7995 45.4495)
        (xy 76.7995 69.5505)
        (xy 76.780546 69.645788)
        (xy 76.72657 69.72657)
        (xy 76.645788 69.780546)
        (xy 76.5505 69.7995)
        (xy 50.4495 69.7995)
        (xy 50.354212 69.780546)
        (xy 50.27343 69.72657)
        (xy 50.219454 69.645788)
        (xy 50.2005 69.5505)
        (xy 50.2005 67.120192)
        (xy 53.5495 67.120192)
        (xy 53.589066 67.357297)
        (xy 53.667118 67.584656)
        (xy 53.781528 67.796067)
        (xy 53.929175 67.985764)
        (xy 54.106031 68.148571)
        (xy 54.307272 68.280049)
        (xy 54.527409 68.37661)
        (xy 54.760437 68.43562)
        (xy 54.94001 68.4505)
        (xy 54.945166 68.4505)
        (xy 55.054834 68.4505)
        (xy 55.05999 68.4505)
        (xy 55.239563 68.43562)
        (xy 55.472591 68.37661)
        (xy 55.692728 68.280049)
        (xy 55.893969 68.148571)
        (xy 56.070825 67.985764)
        (xy 56.218472 67.796067)
        (xy 56.332882 67.584656)
        (xy 56.410934 67.357297)
        (xy 56.4505 67.120192)
        (xy 70.5495 67.120192)
        (xy 70.589066 67.357297)
        (xy 70.667118 67.584656)
        (xy 70.781528 67.796067)
        (xy 70.929175 67.985764)
        (xy 71.106031 68.148571)
        (xy 71.307272 68.280049)
        (xy 71.527409 68.37661)
        (xy 71.760437 68.43562)
        (xy 71.94001 68.4505)
        (xy 71.945166 68.4505)
        (xy 72.054834 68.4505)
        (xy 72.05999 68.4505)
        (xy 72.239563 68.43562)
        (xy 72.472591 68.37661)
        (xy 72.692728 68.280049)
        (xy 72.893969 68.148571)
        (xy 73.070825 67.985764)
        (xy 73.218472 67.796067)
        (xy 73.332882 67.584656)
        (xy 73.410934 67.357297)
        (xy 73.4505 67.120192)
        (xy 73.4505 66.879808)
        (xy 73.410934 66.642703)
        (xy 73.332882 66.415344)
        (xy 73.218472 66.203933)
        (xy 73.070825 66.014236)
        (xy 72.893969 65.851429)
        (xy 72.692728 65.719951)
        (xy 72.600559 65.679522)
        (xy 72.472592 65.62339)
        (xy 72.239565 65.56438)
        (xy 72.06512 65.549925)
        (xy 72.065117 65.549924)
        (xy 72.05999 65.5495)
        (xy 71.94001 65.5495)
        (xy 71.934883 65.549924)
        (xy 71.934879 65.549925)
        (xy 71.760434 65.56438)
        (xy 71.527407 65.62339)
        (xy 71.307274 65.71995)
        (xy 71.106032 65.851428)
        (xy 70.929173 66.014238)
        (xy 70.781528 66.203932)
        (xy 70.667119 66.415341)
        (xy 70.589065 66.642705)
        (xy 70.5495 66.879807)
        (xy 70.5495 66.879808)
        (xy 70.5495 67.120192)
        (xy 56.4505 67.120192)
        (xy 56.4505 66.879808)
        (xy 56.410934 66.642703)
        (xy 56.332882 66.415344)
        (xy 56.218472 66.203933)
        (xy 56.070825 66.014236)
        (xy 55.893969 65.851429)
        (xy 55.692728 65.719951)
        (xy 55.600559 65.679522)
        (xy 55.472592 65.62339)
        (xy 55.239565 65.56438)
        (xy 55.06512 65.549925)
        (xy 55.065117 65.549924)
        (xy 55.05999 65.5495)
        (xy 54.94001 65.5495)
        (xy 54.934883 65.549924)
        (xy 54.934879 65.549925)
        (xy 54.760434 65.56438)
        (xy 54.527407 65.62339)
        (xy 54.307274 65.71995)
        (xy 54.106032 65.851428)
        (xy 53.929173 66.014238)
        (xy 53.781528 66.203932)
        (xy 53.667119 66.415341)
        (xy 53.589065 66.642705)
        (xy 53.5495 66.879807)
        (xy 53.5495 66.879808)
        (xy 53.5495 67.120192)
        (xy 50.2005 67.120192)
        (xy 50.2005 62.511338)
        (xy 50.20775 62.474886)
        (xy 50.207069 62.473386)
        (xy 50.206387 62.467484)
        (xy 50.691233 62.467484)
        (xy 50.698135 62.497858)
        (xy 50.705755 62.638408)
        (xy 50.730873 62.728877)
        (xy 50.755246 62.816659)
        (xy 50.8419 62.980104)
        (xy 50.961663 63.1211)
        (xy 51.108936 63.233054)
        (xy 51.276833 63.310732)
        (xy 51.457503 63.3505)
        (xy 51.457505 63.3505)
        (xy 51.589359 63.3505)
        (xy 51.596113 63.3505)
        (xy 51.73391 63.335514)
        (xy 51.909221 63.276444)
        (xy 52.067736 63.18107)
        (xy 52.202041 63.053849)
        (xy 52.305858 62.90073)
        (xy 52.374331 62.728875)
        (xy 52.40426 62.546317)
        (xy 52.399238 62.453683)
        (xy 53.19574 62.453683)
        (xy 53.205755 62.638408)
        (xy 53.230873 62.728877)
        (xy 53.255246 62.816659)
        (xy 53.3419 62.980104)
        (xy 53.461663 63.1211)
        (xy 53.608936 63.233054)
        (xy 53.776833 63.310732)
        (xy 53.957503 63.3505)
        (xy 53.957505 63.3505)
        (xy 54.089359 63.3505)
        (xy 54.096113 63.3505)
        (xy 54.23391 63.335514)
        (xy 54.409221 63.276444)
        (xy 54.567736 63.18107)
        (xy 54.702041 63.053849)
        (xy 54.805858 62.90073)
        (xy 54.874331 62.728875)
        (xy 54.90426 62.546317)
        (xy 54.901749 62.5)
        (xy 57.419473 62.5)
        (xy 57.439547 62.755066)
        (xy 57.499278 63.00386)
        (xy 57.597191 63.240245)
        (xy 57.730876 63.458399)
        (xy 57.897043 63.652956)
        (xy 58.0916 63.819123)
        (xy 58.309754 63.952808)
        (xy 58.378989 63.981486)
        (xy 58.54614 64.050722)
        (xy 58.79493 64.110452)
        (xy 59.05 64.130526)
        (xy 59.30507 64.110452)
        (xy 59.55386 64.050722)
        (xy 59.790243 63.952809)
        (xy 60.008399 63.819123)
        (xy 60.202956 63.652956)
        (xy 60.369123 63.458399)
        (xy 60.435244 63.3505)
        (xy 60.502808 63.240245)
        (xy 60.505787 63.233054)
        (xy 60.600722 63.00386)
        (xy 60.660452 62.75507)
        (xy 60.680526 62.5)
        (xy 60.660452 62.24493)
        (xy 60.600722 61.99614)
        (xy 60.505787 61.766946)
        (xy 60.502808 61.759754)
        (xy 60.369123 61.5416)
        (xy 60.202956 61.347043)
        (xy 60.008399 61.180876)
        (xy 59.790244 61.047191)
        (xy 59.623182 60.977992)
        (xy 59.542401 60.924016)
        (xy 59.488424 60.843234)
        (xy 59.46947 60.747946)
        (xy 59.488424 60.652658)
        (xy 59.537353 60.577072)
        (xy 59.656092 60.451218)
        (xy 59.743812 60.299281)
        (xy 59.79413 60.13121)
        (xy 59.804331 59.956065)
        (xy 59.773865 59.783289)
        (xy 59.773864 59.783286)
        (xy 59.704378 59.622197)
        (xy 59.599612 59.481472)
        (xy 59.567155 59.454237)
        (xy 59.465214 59.368698)
        (xy 59.465212 59.368697)
        (xy 59.465211 59.368696)
        (xy 59.308433 59.28996)
        (xy 59.137721 59.2495)
        (xy 59.006291 59.2495)
        (xy 58.999093 59.250341)
        (xy 58.999081 59.250342)
        (xy 58.875746 59.264758)
        (xy 58.710883 59.324762)
        (xy 58.564302 59.421171)
        (xy 58.443908 59.548781)
        (xy 58.356187 59.700719)
        (xy 58.30587 59.868788)
        (xy 58.295669 60.043935)
        (xy 58.326135 60.216713)
        (xy 58.395621 60.377802)
        (xy 58.500387 60.518527)
        (xy 58.500389 60.518528)
        (xy 58.50039 60.51853)
        (xy 58.544862 60.555846)
        (xy 58.605671 60.631614)
        (xy 58.632858 60.724888)
        (xy 58.62228 60.821465)
        (xy 58.57555 60.906644)
        (xy 58.49978 60.967455)
        (xy 58.480093 60.976635)
        (xy 58.309755 61.047191)
        (xy 58.0916 61.180876)
        (xy 57.897043 61.347043)
        (xy 57.730876 61.5416)
        (xy 57.597191 61.759754)
        (xy 57.499278 61.996139)
        (xy 57.439547 62.244933)
        (xy 57.419473 62.5)
        (xy 54.901749 62.5)
        (xy 54.894245 62.361593)
        (xy 54.844754 62.183341)
        (xy 54.7581 62.019896)
        (xy 54.638337 61.8789)
        (xy 54.491064 61.766946)
        (xy 54.491062 61.766945)
        (xy 54.323168 61.689268)
        (xy 54.262943 61.676012)
        (xy 54.142497 61.6495)
        (xy 54.003887 61.6495)
        (xy 53.99718 61.650229)
        (xy 53.997169 61.65023)
        (xy 53.866092 61.664485)
        (xy 53.690777 61.723556)
        (xy 53.532266 61.818928)
        (xy 53.397957 61.946153)
        (xy 53.29414 62.099271)
        (xy 53.225669 62.271122)
        (xy 53.19574 62.453683)
        (xy 52.399238 62.453683)
        (xy 52.394245 62.361593)
        (xy 52.344754 62.183341)
        (xy 52.2581 62.019896)
        (xy 52.138337 61.8789)
        (xy 51.991064 61.766946)
        (xy 51.991062 61.766945)
        (xy 51.823168 61.689268)
        (xy 51.762943 61.676012)
        (xy 51.642497 61.6495)
        (xy 51.503887 61.6495)
        (xy 51.49718 61.650229)
        (xy 51.497169 61.65023)
        (xy 51.366092 61.664485)
        (xy 51.190777 61.723556)
        (xy 51.032266 61.818928)
        (xy 50.897957 61.946153)
        (xy 50.79414 62.099271)
        (xy 50.725669 62.271122)
        (xy 50.69522 62.456855)
        (xy 50.691233 62.467484)
        (xy 50.206387 62.467484)
        (xy 50.2005 62.416571)
        (xy 50.2005 59.9495)
        (xy 50.219454 59.854212)
        (xy 50.27343 59.77343)
        (xy 50.354212 59.719454)
        (xy 50.4495 59.7005)
        (xy 51.047419 59.7005)
        (xy 51.089471 59.685785)
        (xy 51.128566 59.661219)
        (xy 51.161219 59.628566)
        (xy 51.185785 59.589471)
        (xy 51.2005 59.547419)
        (xy 51.2005 57.499999)
        (xy 52.419473 57.499999)
        (xy 52.439547 57.755066)
        (xy 52.499278 58.00386)
        (xy 52.597191 58.240245)
        (xy 52.730876 58.458399)
        (xy 52.897043 58.652956)
        (xy 53.0916 58.819123)
        (xy 53.309754 58.952808)
        (xy 53.367688 58.976805)
        (xy 53.54614 59.050722)
        (xy 53.79493 59.110452)
        (xy 54.05 59.130526)
        (xy 54.30507 59.110452)
        (xy 54.55386 59.050722)
        (xy 54.790243 58.952809)
        (xy 55.008399 58.819123)
        (xy 55.202956 58.652956)
        (xy 55.369123 58.458399)
        (xy 55.435244 58.3505)
        (xy 55.502808 58.240245)
        (xy 55.505787 58.233054)
        (xy 55.600722 58.00386)
        (xy 55.660452 57.75507)
        (xy 55.680526 57.5)
        (xy 55.676881 57.453683)
        (xy 58.19574 57.453683)
        (xy 58.205755 57.638408)
        (xy 58.237892 57.754157)
        (xy 58.255246 57.816659)
        (xy 58.3419 57.980104)
        (xy 58.461663 58.1211)
        (xy 58.608936 58.233054)
        (xy 58.776833 58.310732)
        (xy 58.957503 58.3505)
        (xy 58.957505 58.3505)
        (xy 59.089359 58.3505)
        (xy 59.096113 58.3505)
        (xy 59.23391 58.335514)
        (xy 59.409221 58.276444)
        (xy 59.567736 58.18107)
        (xy 59.702041 58.053849)
        (xy 59.805858 57.90073)
        (xy 59.874331 57.728875)
        (xy 59.90426 57.546317)
        (xy 59.901749 57.5)
        (xy 62.464732 57.5)
        (xy 62.483778 57.754159)
        (xy 62.540491 58.002636)
        (xy 62.633606 58.239886)
        (xy 62.761041 58.460613)
        (xy 62.852051 58.574735)
        (xy 62.91995 58.659877)
        (xy 63.091577 58.819123)
        (xy 63.106784 58.833233)
        (xy 63.317366 58.976805)
        (xy 63.546992 59.087388)
        (xy 63.621764 59.110452)
        (xy 63.790542 59.162513)
        (xy 64.042565 59.2005)
        (xy 64.042566 59.2005)
        (xy 64.297434 59.2005)
        (xy 64.297435 59.2005)
        (xy 64.549458 59.162513)
        (xy 64.793004 59.087389)
        (xy 64.793004 59.087388)
        (xy 64.793007 59.087388)
        (xy 64.903252 59.034296)
        (xy 65.022634 58.976805)
        (xy 65.233217 58.833232)
        (xy 65.42005 58.659877)
        (xy 65.578959 58.460612)
        (xy 65.706393 58.239888)
        (xy 65.799508 58.002637)
        (xy 65.856222 57.754157)
        (xy 65.875268 57.5)
        (xy 67.544732 57.5)
        (xy 67.563778 57.754159)
        (xy 67.620491 58.002636)
        (xy 67.713606 58.239886)
        (xy 67.841041 58.460613)
        (xy 67.932051 58.574735)
        (xy 67.99995 58.659877)
        (xy 68.171577 58.819123)
        (xy 68.186784 58.833233)
        (xy 68.397366 58.976805)
        (xy 68.626992 59.087388)
        (xy 68.701764 59.110452)
        (xy 68.870542 59.162513)
        (xy 69.122565 59.2005)
        (xy 69.122566 59.2005)
        (xy 69.377434 59.2005)
        (xy 69.377435 59.2005)
        (xy 69.629458 59.162513)
        (xy 69.873004 59.087389)
        (xy 69.873004 59.087388)
        (xy 69.873007 59.087388)
        (xy 69.983252 59.034296)
        (xy 70.102634 58.976805)
        (xy 70.313217 58.833232)
        (xy 70.50005 58.659877)
        (xy 70.658959 58.460612)
        (xy 70.786393 58.239888)
        (xy 70.879508 58.002637)
        (xy 70.936222 57.754157)
        (xy 70.955268 57.5)
        (xy 72.624732 57.5)
        (xy 72.643778 57.754159)
        (xy 72.700491 58.002636)
        (xy 72.793606 58.239886)
        (xy 72.921041 58.460613)
        (xy 73.012051 58.574735)
        (xy 73.07995 58.659877)
        (xy 73.251577 58.819123)
        (xy 73.266784 58.833233)
        (xy 73.477366 58.976805)
        (xy 73.706992 59.087388)
        (xy 73.781764 59.110452)
        (xy 73.950542 59.162513)
        (xy 74.202565 59.2005)
        (xy 74.202566 59.2005)
        (xy 74.457434 59.2005)
        (xy 74.457435 59.2005)
        (xy 74.709458 59.162513)
        (xy 74.953004 59.087389)
        (xy 74.953004 59.087388)
        (xy 74.953007 59.087388)
        (xy 75.063252 59.034296)
        (xy 75.182634 58.976805)
        (xy 75.393217 58.833232)
        (xy 75.58005 58.659877)
        (xy 75.738959 58.460612)
        (xy 75.866393 58.239888)
        (xy 75.959508 58.002637)
        (xy 76.016222 57.754157)
        (xy 76.035268 57.5)
        (xy 76.016222 57.245843)
        (xy 75.959508 56.997363)
        (xy 75.866393 56.760112)
        (xy 75.738959 56.539388)
        (xy 75.738958 56.539386)
        (xy 75.585569 56.347044)
        (xy 75.58005 56.340123)
        (xy 75.393217 56.166768)
        (xy 75.393215 56.166766)
        (xy 75.182633 56.023194)
        (xy 74.953007 55.912611)
        (xy 74.709456 55.837486)
        (xy 74.502162 55.806241)
        (xy 74.457435 55.7995)
        (xy 74.202565 55.7995)
        (xy 74.164579 55.805225)
        (xy 73.950543 55.837486)
        (xy 73.706992 55.912611)
        (xy 73.477366 56.023194)
        (xy 73.266784 56.166766)
        (xy 73.079949 56.340124)
        (xy 72.921041 56.539386)
        (xy 72.793606 56.760113)
        (xy 72.700491 56.997363)
        (xy 72.643778 57.24584)
        (xy 72.624732 57.5)
        (xy 70.955268 57.5)
        (xy 70.936222 57.245843)
        (xy 70.879508 56.997363)
        (xy 70.786393 56.760112)
        (xy 70.658959 56.539388)
        (xy 70.658958 56.539386)
        (xy 70.505569 56.347044)
        (xy 70.50005 56.340123)
        (xy 70.313217 56.166768)
        (xy 70.313215 56.166766)
        (xy 70.102633 56.023194)
        (xy 69.873007 55.912611)
        (xy 69.629456 55.837486)
        (xy 69.422162 55.806241)
        (xy 69.377435 55.7995)
        (xy 69.122565 55.7995)
        (xy 69.084578 55.805225)
        (xy 68.870543 55.837486)
        (xy 68.626992 55.912611)
        (xy 68.397366 56.023194)
        (xy 68.186784 56.166766)
        (xy 67.999949 56.340124)
        (xy 67.841041 56.539386)
        (xy 67.713606 56.760113)
        (xy 67.620491 56.997363)
        (xy 67.563778 57.24584)
        (xy 67.544732 57.5)
        (xy 65.875268 57.5)
        (xy 65.856222 57.245843)
        (xy 65.799508 56.997363)
        (xy 65.706393 56.760112)
        (xy 65.578959 56.539388)
        (xy 65.578958 56.539386)
        (xy 65.425569 56.347044)
        (xy 65.42005 56.340123)
        (xy 65.233217 56.166768)
        (xy 65.233215 56.166766)
        (xy 65.022633 56.023194)
        (xy 64.793007 55.912611)
        (xy 64.549456 55.837486)
        (xy 64.342162 55.806241)
        (xy 64.297435 55.7995)
        (xy 64.042565 55.7995)
        (xy 64.004578 55.805225)
        (xy 63.790543 55.837486)
        (xy 63.546992 55.912611)
        (xy 63.317366 56.023194)
        (xy 63.106784 56.166766)
        (xy 62.919949 56.340124)
        (xy 62.761041 56.539386)
        (xy 62.633606 56.760113)
        (xy 62.540491 56.997363)
        (xy 62.483778 57.24584)
        (xy 62.464732 57.5)
        (xy 59.901749 57.5)
        (xy 59.894245 57.361593)
        (xy 59.844754 57.183341)
        (xy 59.7581 57.019896)
        (xy 59.638337 56.8789)
        (xy 59.491064 56.766946)
        (xy 59.476293 56.760112)
        (xy 59.323168 56.689268)
        (xy 59.262943 56.676012)
        (xy 59.142497 56.6495)
        (xy 59.003887 56.6495)
        (xy 58.99718 56.650229)
        (xy 58.997169 56.65023)
        (xy 58.866092 56.664485)
        (xy 58.690777 56.723556)
        (xy 58.532266 56.818928)
        (xy 58.397957 56.946153)
        (xy 58.29414 57.099271)
        (xy 58.225669 57.271122)
        (xy 58.19574 57.453683)
        (xy 55.676881 57.453683)
        (xy 55.660452 57.24493)
        (xy 55.600722 56.99614)
        (xy 55.505787 56.766946)
        (xy 55.502808 56.759754)
        (xy 55.369123 56.5416)
        (xy 55.202956 56.347043)
        (xy 55.008399 56.180876)
        (xy 54.790245 56.047191)
        (xy 54.55386 55.949278)
        (xy 54.305066 55.889547)
        (xy 54.05 55.869473)
        (xy 53.794933 55.889547)
        (xy 53.546139 55.949278)
        (xy 53.309754 56.047191)
        (xy 53.0916 56.180876)
        (xy 52.897043 56.347043)
        (xy 52.730876 56.5416)
        (xy 52.597191 56.759754)
        (xy 52.499278 56.996139)
        (xy 52.439547 57.244933)
        (xy 52.419473 57.499999)
        (xy 51.2005 57.499999)
        (xy 51.2005 55.45258)
        (xy 51.185786 55.410532)
        (xy 51.161218 55.371433)
        (xy 51.128569 55.338783)
        (xy 51.089472 55.314216)
        (xy 51.047419 55.2995)
        (xy 51.045763 55.2995)
        (xy 51.02259 55.2995)
        (xy 50.4495 55.2995)
        (xy 50.354212 55.280546)
        (xy 50.27343 55.22657)
        (xy 50.219454 55.145788)
        (xy 50.2005 55.0505)
        (xy 50.2005 52.511338)
        (xy 50.20775 52.474886)
        (xy 50.207069 52.473386)
        (xy 50.206387 52.467484)
        (xy 50.691233 52.467484)
        (xy 50.698135 52.497858)
        (xy 50.705755 52.638408)
        (xy 50.730873 52.728877)
        (xy 50.755246 52.816659)
        (xy 50.8419 52.980104)
        (xy 50.961663 53.1211)
        (xy 51.108936 53.233054)
        (xy 51.276833 53.310732)
        (xy 51.457503 53.3505)
        (xy 51.457505 53.3505)
        (xy 51.589359 53.3505)
        (xy 51.596113 53.3505)
        (xy 51.73391 53.335514)
        (xy 51.909221 53.276444)
        (xy 52.067736 53.18107)
        (xy 52.202041 53.053849)
        (xy 52.305858 52.90073)
        (xy 52.374331 52.728875)
        (xy 52.40426 52.546317)
        (xy 52.399238 52.453683)
        (xy 53.19574 52.453683)
        (xy 53.205755 52.638408)
        (xy 53.230873 52.728877)
        (xy 53.255246 52.816659)
        (xy 53.3419 52.980104)
        (xy 53.461663 53.1211)
        (xy 53.608936 53.233054)
        (xy 53.776833 53.310732)
        (xy 53.957503 53.3505)
        (xy 53.957505 53.3505)
        (xy 54.089359 53.3505)
        (xy 54.096113 53.3505)
        (xy 54.23391 53.335514)
        (xy 54.409221 53.276444)
        (xy 54.567736 53.18107)
        (xy 54.702041 53.053849)
        (xy 54.805858 52.90073)
        (xy 54.874331 52.728875)
        (xy 54.90426 52.546317)
        (xy 54.894245 52.361593)
        (xy 54.844754 52.183341)
        (xy 54.7581 52.019896)
        (xy 54.638337 51.8789)
        (xy 54.491064 51.766946)
        (xy 54.397279 51.723556)
        (xy 54.323168 51.689268)
        (xy 54.262943 51.676012)
        (xy 54.142497 51.6495)
        (xy 54.003887 51.6495)
        (xy 53.99718 51.650229)
        (xy 53.997169 51.65023)
        (xy 53.866092 51.664485)
        (xy 53.690777 51.723556)
        (xy 53.532266 51.818928)
        (xy 53.397957 51.946153)
        (xy 53.29414 52.099271)
        (xy 53.225669 52.271122)
        (xy 53.19574 52.453683)
        (xy 52.399238 52.453683)
        (xy 52.394245 52.361593)
        (xy 52.344754 52.183341)
        (xy 52.2581 52.019896)
        (xy 52.138337 51.8789)
        (xy 51.991064 51.766946)
        (xy 51.897279 51.723556)
        (xy 51.823168 51.689268)
        (xy 51.762943 51.676012)
        (xy 51.642497 51.6495)
        (xy 51.503887 51.6495)
        (xy 51.49718 51.650229)
        (xy 51.497169 51.65023)
        (xy 51.366092 51.664485)
        (xy 51.190777 51.723556)
        (xy 51.032266 51.818928)
        (xy 50.897957 51.946153)
        (xy 50.79414 52.099271)
        (xy 50.725669 52.271122)
        (xy 50.69522 52.456855)
        (xy 50.691233 52.467484)
        (xy 50.206387 52.467484)
        (xy 50.2005 52.416571)
        (xy 50.2005 48.120192)
        (xy 53.5495 48.120192)
        (xy 53.589066 48.357297)
        (xy 53.667118 48.584656)
        (xy 53.781528 48.796067)
        (xy 53.929175 48.985764)
        (xy 54.106031 49.148571)
        (xy 54.307272 49.280049)
        (xy 54.527409 49.37661)
        (xy 54.760437 49.43562)
        (xy 54.94001 49.4505)
        (xy 54.945166 49.4505)
        (xy 55.054834 49.4505)
        (xy 55.05999 49.4505)
        (xy 55.239563 49.43562)
        (xy 55.472591 49.37661)
        (xy 55.692728 49.280049)
        (xy 55.893969 49.148571)
        (xy 56.070825 48.985764)
        (xy 56.218472 48.796067)
        (xy 56.332882 48.584656)
        (xy 56.410934 48.357297)
        (xy 56.4505 48.120192)
        (xy 70.5495 48.120192)
        (xy 70.589066 48.357297)
        (xy 70.667118 48.584656)
        (xy 70.781528 48.796067)
        (xy 70.929175 48.985764)
        (xy 71.106031 49.148571)
        (xy 71.307272 49.280049)
        (xy 71.527409 49.37661)
        (xy 71.760437 49.43562)
        (xy 71.94001 49.4505)
        (xy 71.945166 49.4505)
        (xy 72.054834 49.4505)
        (xy 72.05999 49.4505)
        (xy 72.239563 49.43562)
        (xy 72.472591 49.37661)
        (xy 72.692728 49.280049)
        (xy 72.893969 49.148571)
        (xy 73.070825 48.985764)
        (xy 73.218472 48.796067)
        (xy 73.332882 48.584656)
        (xy 73.410934 48.357297)
        (xy 73.4505 48.120192)
        (xy 73.4505 47.879808)
        (xy 73.410934 47.642703)
        (xy 73.332882 47.415344)
        (xy 73.218472 47.203933)
        (xy 73.070825 47.014236)
        (xy 72.893969 46.851429)
        (xy 72.692728 46.719951)
        (xy 72.600559 46.679522)
        (xy 72.472592 46.62339)
        (xy 72.239565 46.56438)
        (xy 72.06512 46.549925)
        (xy 72.065117 46.549924)
        (xy 72.05999 46.5495)
        (xy 71.94001 46.5495)
        (xy 71.934883 46.549924)
        (xy 71.934879 46.549925)
        (xy 71.760434 46.56438)
        (xy 71.527407 46.62339)
        (xy 71.307274 46.71995)
        (xy 71.106032 46.851428)
        (xy 70.929173 47.014238)
        (xy 70.781528 47.203932)
        (xy 70.667119 47.415341)
        (xy 70.589065 47.642705)
        (xy 70.5495 47.879807)
        (xy 70.5495 47.879808)
        (xy 70.5495 48.120192)
        (xy 56.4505 48.120192)
        (xy 56.4505 47.879808)
        (xy 56.410934 47.642703)
        (xy 56.332882 47.415344)
        (xy 56.218472 47.203933)
        (xy 56.070825 47.014236)
        (xy 55.893969 46.851429)
        (xy 55.692728 46.719951)
        (xy 55.600559 46.679522)
        (xy 55.472592 46.62339)
        (xy 55.239565 46.56438)
        (xy 55.06512 46.549925)
        (xy 55.065117 46.549924)
        (xy 55.05999 46.5495)
        (xy 54.94001 46.5495)
        (xy 54.934883 46.549924)
        (xy 54.934879 46.549925)
        (xy 54.760434 46.56438)
        (xy 54.527407 46.62339)
        (xy 54.307274 46.71995)
        (xy 54.106032 46.851428)
        (xy 53.929173 47.014238)
        (xy 53.781528 47.203932)
        (xy 53.667119 47.415341)
        (xy 53.589065 47.642705)
        (xy 53.5495 47.879807)
        (xy 53.5495 47.879808)
        (xy 53.5495 48.120192)
        (xy 50.2005 48.120192)
        (xy 50.2005 45.4495)
        (xy 50.219454 45.354212)
        (xy 50.27343 45.27343)
        (xy 50.354212 45.219454)
        (xy 50.4495 45.2005)
        (xy 76.5505 45.2005)
      )
    )
  )
  (zone (net 0) (net_name "") (layer "B.Cu") (tstamp f238640e-3401-420a-ac31-a433f268cbfc) (name "BACK_FILL") (hatch edge 0.508)
    (connect_pads (clearance 0.5))
    (min_thickness 0.5) (filled_areas_thickness no)
    (fill yes (thermal_gap 0.508) (thermal_bridge_width 0.508))
    (polygon
      (pts
        (xy 76.99 70)
        (xy 50 70)
        (xy 50 45)
        (xy 77 45)
      )
    )
    (filled_polygon
      (layer "B.Cu")
      (island)
      (pts
        (xy 76.645788 45.219454)
        (xy 76.72657 45.27343)
        (xy 76.780546 45.354212)
        (xy 76.7995 45.4495)
        (xy 76.7995 69.5505)
        (xy 76.780546 69.645788)
        (xy 76.72657 69.72657)
        (xy 76.645788 69.780546)
        (xy 76.5505 69.7995)
        (xy 50.4495 69.7995)
        (xy 50.354212 69.780546)
        (xy 50.27343 69.72657)
        (xy 50.219454 69.645788)
        (xy 50.2005 69.5505)
        (xy 50.2005 67.120192)
        (xy 53.5495 67.120192)
        (xy 53.589066 67.357297)
        (xy 53.667118 67.584656)
        (xy 53.781528 67.796067)
        (xy 53.929175 67.985764)
        (xy 54.106031 68.148571)
        (xy 54.307272 68.280049)
        (xy 54.527409 68.37661)
        (xy 54.760437 68.43562)
        (xy 54.94001 68.4505)
        (xy 54.945166 68.4505)
        (xy 55.054834 68.4505)
        (xy 55.05999 68.4505)
        (xy 55.239563 68.43562)
        (xy 55.472591 68.37661)
        (xy 55.692728 68.280049)
        (xy 55.893969 68.148571)
        (xy 56.070825 67.985764)
        (xy 56.218472 67.796067)
        (xy 56.332882 67.584656)
        (xy 56.410934 67.357297)
        (xy 56.4505 67.120192)
        (xy 70.5495 67.120192)
        (xy 70.589066 67.357297)
        (xy 70.667118 67.584656)
        (xy 70.781528 67.796067)
        (xy 70.929175 67.985764)
        (xy 71.106031 68.148571)
        (xy 71.307272 68.280049)
        (xy 71.527409 68.37661)
        (xy 71.760437 68.43562)
        (xy 71.94001 68.4505)
        (xy 71.945166 68.4505)
        (xy 72.054834 68.4505)
        (xy 72.05999 68.4505)
        (xy 72.239563 68.43562)
        (xy 72.472591 68.37661)
        (xy 72.692728 68.280049)
        (xy 72.893969 68.148571)
        (xy 73.070825 67.985764)
        (xy 73.218472 67.796067)
        (xy 73.332882 67.584656)
        (xy 73.410934 67.357297)
        (xy 73.4505 67.120192)
        (xy 73.4505 66.879808)
        (xy 73.410934 66.642703)
        (xy 73.332882 66.415344)
        (xy 73.218472 66.203933)
        (xy 73.070825 66.014236)
        (xy 72.893969 65.851429)
        (xy 72.692728 65.719951)
        (xy 72.600559 65.679522)
        (xy 72.472592 65.62339)
        (xy 72.239565 65.56438)
        (xy 72.06512 65.549925)
        (xy 72.065117 65.549924)
        (xy 72.05999 65.5495)
        (xy 71.94001 65.5495)
        (xy 71.934883 65.549924)
        (xy 71.934879 65.549925)
        (xy 71.760434 65.56438)
        (xy 71.527407 65.62339)
        (xy 71.307274 65.71995)
        (xy 71.106032 65.851428)
        (xy 70.929173 66.014238)
        (xy 70.781528 66.203932)
        (xy 70.667119 66.415341)
        (xy 70.589065 66.642705)
        (xy 70.5495 66.879807)
        (xy 70.5495 66.879808)
        (xy 70.5495 67.120192)
        (xy 56.4505 67.120192)
        (xy 56.4505 66.879808)
        (xy 56.410934 66.642703)
        (xy 56.332882 66.415344)
        (xy 56.218472 66.203933)
        (xy 56.070825 66.014236)
        (xy 55.893969 65.851429)
        (xy 55.692728 65.719951)
        (xy 55.600559 65.679522)
        (xy 55.472592 65.62339)
        (xy 55.239565 65.56438)
        (xy 55.06512 65.549925)
        (xy 55.065117 65.549924)
        (xy 55.05999 65.5495)
        (xy 54.94001 65.5495)
        (xy 54.934883 65.549924)
        (xy 54.934879 65.549925)
        (xy 54.760434 65.56438)
        (xy 54.527407 65.62339)
        (xy 54.307274 65.71995)
        (xy 54.106032 65.851428)
        (xy 53.929173 66.014238)
        (xy 53.781528 66.203932)
        (xy 53.667119 66.415341)
        (xy 53.589065 66.642705)
        (xy 53.5495 66.879807)
        (xy 53.5495 66.879808)
        (xy 53.5495 67.120192)
        (xy 50.2005 67.120192)
        (xy 50.2005 62.511338)
        (xy 50.20775 62.474886)
        (xy 50.207069 62.473386)
        (xy 50.206387 62.467484)
        (xy 50.691233 62.467484)
        (xy 50.698135 62.497858)
        (xy 50.705755 62.638408)
        (xy 50.730873 62.728877)
        (xy 50.755246 62.816659)
        (xy 50.8419 62.980104)
        (xy 50.961663 63.1211)
        (xy 51.108936 63.233054)
        (xy 51.276833 63.310732)
        (xy 51.457503 63.3505)
        (xy 51.457505 63.3505)
        (xy 51.589359 63.3505)
        (xy 51.596113 63.3505)
        (xy 51.73391 63.335514)
        (xy 51.909221 63.276444)
        (xy 52.067736 63.18107)
        (xy 52.202041 63.053849)
        (xy 52.305858 62.90073)
        (xy 52.374331 62.728875)
        (xy 52.40426 62.546317)
        (xy 52.399238 62.453683)
        (xy 53.19574 62.453683)
        (xy 53.205755 62.638408)
        (xy 53.230873 62.728877)
        (xy 53.255246 62.816659)
        (xy 53.3419 62.980104)
        (xy 53.461663 63.1211)
        (xy 53.608936 63.233054)
        (xy 53.776833 63.310732)
        (xy 53.957503 63.3505)
        (xy 53.957505 63.3505)
        (xy 54.089359 63.3505)
        (xy 54.096113 63.3505)
        (xy 54.23391 63.335514)
        (xy 54.409221 63.276444)
        (xy 54.567736 63.18107)
        (xy 54.702041 63.053849)
        (xy 54.805858 62.90073)
        (xy 54.874331 62.728875)
        (xy 54.90426 62.546317)
        (xy 54.901749 62.5)
        (xy 57.419473 62.5)
        (xy 57.439547 62.755066)
        (xy 57.499278 63.00386)
        (xy 57.597191 63.240245)
        (xy 57.730876 63.458399)
        (xy 57.897043 63.652956)
        (xy 58.0916 63.819123)
        (xy 58.309754 63.952808)
        (xy 58.378989 63.981486)
        (xy 58.54614 64.050722)
        (xy 58.79493 64.110452)
        (xy 59.05 64.130526)
        (xy 59.30507 64.110452)
        (xy 59.55386 64.050722)
        (xy 59.790243 63.952809)
        (xy 60.008399 63.819123)
        (xy 60.202956 63.652956)
        (xy 60.202956 63.652955)
        (xy 60.258615 63.587788)
        (xy 60.334912 63.52764)
        (xy 60.428419 63.501268)
        (xy 60.447956 63.5005)
        (xy 64.234135 63.5005)
        (xy 64.240441 63.50058)
        (xy 64.326363 63.502757)
        (xy 64.37977 63.493184)
        (xy 64.398462 63.490562)
        (xy 64.452438 63.485074)
        (xy 64.4739 63.478339)
        (xy 64.504509 63.470827)
        (xy 64.507603 63.470272)
        (xy 64.526653 63.466858)
        (xy 64.577014 63.44674)
        (xy 64.594842 63.440394)
        (xy 64.646588 63.424159)
        (xy 64.666262 63.413238)
        (xy 64.694725 63.399721)
        (xy 64.715617 63.391377)
        (xy 64.760908 63.361527)
        (xy 64.777073 63.351733)
        (xy 64.824502 63.325409)
        (xy 64.841573 63.310753)
        (xy 64.866734 63.291781)
        (xy 64.885519 63.279402)
        (xy 64.923876 63.241044)
        (xy 64.937738 63.228196)
        (xy 64.978895 63.192866)
        (xy 64.992668 63.175071)
        (xy 65.013485 63.151434)
        (xy 68.896252 59.268666)
        (xy 68.977031 59.214693)
        (xy 69.072319 59.195739)
        (xy 69.109433 59.198521)
        (xy 69.122562 59.2005)
        (xy 69.122565 59.2005)
        (xy 69.377434 59.2005)
        (xy 69.377435 59.2005)
        (xy 69.629458 59.162513)
        (xy 69.873004 59.087389)
        (xy 69.873004 59.087388)
        (xy 69.873007 59.087388)
        (xy 69.983252 59.034296)
        (xy 70.102634 58.976805)
        (xy 70.313217 58.833232)
        (xy 70.50005 58.659877)
        (xy 70.658959 58.460612)
        (xy 70.786393 58.239888)
        (xy 70.879508 58.002637)
        (xy 70.936222 57.754157)
        (xy 70.955268 57.5)
        (xy 70.936222 57.245843)
        (xy 70.879508 56.997363)
        (xy 70.786393 56.760112)
        (xy 70.658959 56.539388)
        (xy 70.658958 56.539386)
        (xy 70.505569 56.347044)
        (xy 70.50005 56.340123)
        (xy 70.313217 56.166768)
        (xy 70.313215 56.166766)
        (xy 70.102633 56.023194)
        (xy 69.873007 55.912611)
        (xy 69.629456 55.837486)
        (xy 69.390571 55.80148)
        (xy 69.377435 55.7995)
        (xy 69.122565 55.7995)
        (xy 69.109429 55.80148)
        (xy 68.870543 55.837486)
        (xy 68.626992 55.912611)
        (xy 68.397366 56.023194)
        (xy 68.186784 56.166766)
        (xy 67.999949 56.340124)
        (xy 67.841041 56.539386)
        (xy 67.713606 56.760113)
        (xy 67.620491 56.997363)
        (xy 67.563778 57.24584)
        (xy 67.544732 57.5)
        (xy 67.556437 57.656198)
        (xy 67.544656 57.752636)
        (xy 67.496867 57.837225)
        (xy 67.484203 57.850875)
        (xy 63.90851 61.42657)
        (xy 63.827728 61.480546)
        (xy 63.73244 61.4995)
        (xy 60.447956 61.4995)
        (xy 60.352668 61.480546)
        (xy 60.271886 61.42657)
        (xy 60.258615 61.412212)
        (xy 60.202956 61.347043)
        (xy 60.008399 61.180876)
        (xy 59.790244 61.047191)
        (xy 59.623182 60.977992)
        (xy 59.542401 60.924016)
        (xy 59.488424 60.843234)
        (xy 59.46947 60.747946)
        (xy 59.488424 60.652658)
        (xy 59.537353 60.577072)
        (xy 59.656092 60.451218)
        (xy 59.743812 60.299281)
        (xy 59.79413 60.13121)
        (xy 59.804331 59.956065)
        (xy 59.773865 59.783289)
        (xy 59.773864 59.783286)
        (xy 59.704378 59.622197)
        (xy 59.599612 59.481472)
        (xy 59.567155 59.454237)
        (xy 59.465214 59.368698)
        (xy 59.465212 59.368697)
        (xy 59.465211 59.368696)
        (xy 59.308433 59.28996)
        (xy 59.137721 59.2495)
        (xy 59.006291 59.2495)
        (xy 58.999093 59.250341)
        (xy 58.999081 59.250342)
        (xy 58.875746 59.264758)
        (xy 58.710883 59.324762)
        (xy 58.564302 59.421171)
        (xy 58.443908 59.548781)
        (xy 58.356187 59.700719)
        (xy 58.30587 59.868788)
        (xy 58.295669 60.043935)
        (xy 58.326135 60.216713)
        (xy 58.395621 60.377802)
        (xy 58.500387 60.518527)
        (xy 58.500389 60.518528)
        (xy 58.50039 60.51853)
        (xy 58.544862 60.555846)
        (xy 58.605671 60.631614)
        (xy 58.632858 60.724888)
        (xy 58.62228 60.821465)
        (xy 58.57555 60.906644)
        (xy 58.49978 60.967455)
        (xy 58.480093 60.976635)
        (xy 58.309755 61.047191)
        (xy 58.0916 61.180876)
        (xy 57.897043 61.347043)
        (xy 57.730876 61.5416)
        (xy 57.597191 61.759754)
        (xy 57.499278 61.996139)
        (xy 57.439547 62.244933)
        (xy 57.419473 62.5)
        (xy 54.901749 62.5)
        (xy 54.894245 62.361593)
        (xy 54.844754 62.183341)
        (xy 54.7581 62.019896)
        (xy 54.638337 61.8789)
        (xy 54.491064 61.766946)
        (xy 54.491062 61.766945)
        (xy 54.323168 61.689268)
        (xy 54.262943 61.676012)
        (xy 54.142497 61.6495)
        (xy 54.003887 61.6495)
        (xy 53.99718 61.650229)
        (xy 53.997169 61.65023)
        (xy 53.866092 61.664485)
        (xy 53.690777 61.723556)
        (xy 53.532266 61.818928)
        (xy 53.397957 61.946153)
        (xy 53.29414 62.099271)
        (xy 53.225669 62.271122)
        (xy 53.19574 62.453683)
        (xy 52.399238 62.453683)
        (xy 52.394245 62.361593)
        (xy 52.344754 62.183341)
        (xy 52.2581 62.019896)
        (xy 52.138337 61.8789)
        (xy 51.991064 61.766946)
        (xy 51.991062 61.766945)
        (xy 51.823168 61.689268)
        (xy 51.762943 61.676012)
        (xy 51.642497 61.6495)
        (xy 51.503887 61.6495)
        (xy 51.49718 61.650229)
        (xy 51.497169 61.65023)
        (xy 51.366092 61.664485)
        (xy 51.190777 61.723556)
        (xy 51.032266 61.818928)
        (xy 50.897957 61.946153)
        (xy 50.79414 62.099271)
        (xy 50.725669 62.271122)
        (xy 50.69522 62.456855)
        (xy 50.691233 62.467484)
        (xy 50.206387 62.467484)
        (xy 50.2005 62.416571)
        (xy 50.2005 59.9495)
        (xy 50.219454 59.854212)
        (xy 50.27343 59.77343)
        (xy 50.354212 59.719454)
        (xy 50.4495 59.7005)
        (xy 51.047419 59.7005)
        (xy 51.089471 59.685785)
        (xy 51.128566 59.661219)
        (xy 51.161219 59.628566)
        (xy 51.185785 59.589471)
        (xy 51.2005 59.547419)
        (xy 51.2005 57.499999)
        (xy 52.419473 57.499999)
        (xy 52.439547 57.755066)
        (xy 52.499278 58.00386)
        (xy 52.597191 58.240245)
        (xy 52.730876 58.458399)
        (xy 52.897043 58.652956)
        (xy 53.0916 58.819123)
        (xy 53.309754 58.952808)
        (xy 53.367688 58.976805)
        (xy 53.54614 59.050722)
        (xy 53.79493 59.110452)
        (xy 54.05 59.130526)
        (xy 54.30507 59.110452)
        (xy 54.55386 59.050722)
        (xy 54.790243 58.952809)
        (xy 55.008399 58.819123)
        (xy 55.202956 58.652956)
        (xy 55.369123 58.458399)
        (xy 55.435244 58.3505)
        (xy 55.502808 58.240245)
        (xy 55.505787 58.233054)
        (xy 55.600722 58.00386)
        (xy 55.660452 57.75507)
        (xy 55.680526 57.5)
        (xy 55.67688 57.453683)
        (xy 58.19574 57.453683)
        (xy 58.205755 57.638408)
        (xy 58.237892 57.754157)
        (xy 58.255246 57.816659)
        (xy 58.3419 57.980104)
        (xy 58.461663 58.1211)
        (xy 58.608936 58.233054)
        (xy 58.776833 58.310732)
        (xy 58.957503 58.3505)
        (xy 58.957505 58.3505)
        (xy 59.089359 58.3505)
        (xy 59.096113 58.3505)
        (xy 59.23391 58.335514)
        (xy 59.409221 58.276444)
        (xy 59.567736 58.18107)
        (xy 59.702041 58.053849)
        (xy 59.805858 57.90073)
        (xy 59.874331 57.728875)
        (xy 59.90426 57.546317)
        (xy 59.901749 57.5)
        (xy 62.464732 57.5)
        (xy 62.483778 57.754159)
        (xy 62.540491 58.002636)
        (xy 62.633606 58.239886)
        (xy 62.761041 58.460613)
        (xy 62.852051 58.574735)
        (xy 62.91995 58.659877)
        (xy 63.091577 58.819123)
        (xy 63.106784 58.833233)
        (xy 63.317366 58.976805)
        (xy 63.546992 59.087388)
        (xy 63.621764 59.110452)
        (xy 63.790542 59.162513)
        (xy 64.042565 59.2005)
        (xy 64.042566 59.2005)
        (xy 64.297434 59.2005)
        (xy 64.297435 59.2005)
        (xy 64.549458 59.162513)
        (xy 64.793004 59.087389)
        (xy 64.793004 59.087388)
        (xy 64.793007 59.087388)
        (xy 64.903252 59.034296)
        (xy 65.022634 58.976805)
        (xy 65.233217 58.833232)
        (xy 65.42005 58.659877)
        (xy 65.578959 58.460612)
        (xy 65.706393 58.239888)
        (xy 65.799508 58.002637)
        (xy 65.856222 57.754157)
        (xy 65.875268 57.5)
        (xy 65.856222 57.245843)
        (xy 65.799508 56.997363)
        (xy 65.706393 56.760112)
        (xy 65.578959 56.539388)
        (xy 65.578958 56.539386)
        (xy 65.425569 56.347044)
        (xy 65.42005 56.340123)
        (xy 65.233217 56.166768)
        (xy 65.233215 56.166766)
        (xy 65.022633 56.023194)
        (xy 64.793007 55.912611)
        (xy 64.549456 55.837486)
        (xy 64.310571 55.80148)
        (xy 64.297435 55.7995)
        (xy 64.042565 55.7995)
        (xy 64.029429 55.80148)
        (xy 63.790543 55.837486)
        (xy 63.546992 55.912611)
        (xy 63.317366 56.023194)
        (xy 63.106784 56.166766)
        (xy 62.919949 56.340124)
        (xy 62.761041 56.539386)
        (xy 62.633606 56.760113)
        (xy 62.540491 56.997363)
        (xy 62.483778 57.24584)
        (xy 62.464732 57.5)
        (xy 59.901749 57.5)
        (xy 59.894245 57.361593)
        (xy 59.844754 57.183341)
        (xy 59.7581 57.019896)
        (xy 59.638337 56.8789)
        (xy 59.491064 56.766946)
        (xy 59.476293 56.760112)
        (xy 59.323168 56.689268)
        (xy 59.262943 56.676012)
        (xy 59.142497 56.6495)
        (xy 59.003887 56.6495)
        (xy 58.99718 56.650229)
        (xy 58.997169 56.65023)
        (xy 58.866092 56.664485)
        (xy 58.690777 56.723556)
        (xy 58.532266 56.818928)
        (xy 58.397957 56.946153)
        (xy 58.29414 57.099271)
        (xy 58.225669 57.271122)
        (xy 58.19574 57.453683)
        (xy 55.67688 57.453683)
        (xy 55.673801 57.414559)
        (xy 55.685219 57.318083)
        (xy 55.73269 57.233315)
        (xy 55.74595 57.218968)
        (xy 58.141489 54.82343)
        (xy 58.222272 54.769454)
        (xy 58.31756 54.7505)
        (xy 70.062439 54.7505)
        (xy 70.157727 54.769454)
        (xy 70.238509 54.82343)
        (xy 72.564203 57.149124)
        (xy 72.618179 57.229906)
        (xy 72.637133 57.325194)
        (xy 72.636437 57.343801)
        (xy 72.624732 57.499998)
        (xy 72.643778 57.754159)
        (xy 72.700491 58.002636)
        (xy 72.793606 58.239886)
        (xy 72.921041 58.460613)
        (xy 73.012051 58.574735)
        (xy 73.07995 58.659877)
        (xy 73.251577 58.819123)
        (xy 73.266784 58.833233)
        (xy 73.477366 58.976805)
        (xy 73.706992 59.087388)
        (xy 73.781764 59.110452)
        (xy 73.950542 59.162513)
        (xy 74.202565 59.2005)
        (xy 74.202566 59.2005)
        (xy 74.457434 59.2005)
        (xy 74.457435 59.2005)
        (xy 74.709458 59.162513)
        (xy 74.953004 59.087389)
        (xy 74.953004 59.087388)
        (xy 74.953007 59.087388)
        (xy 75.063252 59.034296)
        (xy 75.182634 58.976805)
        (xy 75.393217 58.833232)
        (xy 75.58005 58.659877)
        (xy 75.738959 58.460612)
        (xy 75.866393 58.239888)
        (xy 75.959508 58.002637)
        (xy 76.016222 57.754157)
        (xy 76.035268 57.5)
        (xy 76.016222 57.245843)
        (xy 75.959508 56.997363)
        (xy 75.866393 56.760112)
        (xy 75.738959 56.539388)
        (xy 75.738958 56.539386)
        (xy 75.585569 56.347044)
        (xy 75.58005 56.340123)
        (xy 75.393217 56.166768)
        (xy 75.393215 56.166766)
        (xy 75.182633 56.023194)
        (xy 74.953007 55.912611)
        (xy 74.709456 55.837486)
        (xy 74.470571 55.80148)
        (xy 74.457435 55.7995)
        (xy 74.202565 55.7995)
        (xy 74.202564 55.7995)
        (xy 74.189426 55.80148)
        (xy 74.092378 55.796937)
        (xy 74.004455 55.755602)
        (xy 73.97625 55.73133)
        (xy 71.298662 53.053742)
        (xy 71.294259 53.049225)
        (xy 71.235059 52.986947)
        (xy 71.225226 52.980103)
        (xy 71.190539 52.95596)
        (xy 71.175436 52.944572)
        (xy 71.133408 52.910303)
        (xy 71.133407 52.910302)
        (xy 71.115079 52.900728)
        (xy 71.11346 52.899882)
        (xy 71.086509 52.883553)
        (xy 71.068049 52.870705)
        (xy 71.018202 52.849313)
        (xy 71.001116 52.841198)
        (xy 70.95305 52.81609)
        (xy 70.931426 52.809903)
        (xy 70.901732 52.799331)
        (xy 70.881058 52.790459)
        (xy 70.827924 52.779539)
        (xy 70.809554 52.77503)
        (xy 70.75742 52.760113)
        (xy 70.73498 52.758404)
        (xy 70.703773 52.754027)
        (xy 70.681742 52.7495)
        (xy 70.681741 52.7495)
        (xy 70.62751 52.7495)
        (xy 70.608603 52.748781)
        (xy 70.554524 52.744662)
        (xy 70.532208 52.747505)
        (xy 70.50075 52.7495)
        (xy 57.815865 52.7495)
        (xy 57.809559 52.74942)
        (xy 57.723637 52.747243)
        (xy 57.670242 52.756812)
        (xy 57.651515 52.759438)
        (xy 57.597561 52.764925)
        (xy 57.576081 52.771664)
        (xy 57.545491 52.779172)
        (xy 57.539179 52.780303)
        (xy 57.523345 52.783142)
        (xy 57.472979 52.80326)
        (xy 57.455166 52.809602)
        (xy 57.403411 52.825841)
        (xy 57.38374 52.836759)
        (xy 57.355281 52.850274)
        (xy 57.334382 52.858622)
        (xy 57.289092 52.88847)
        (xy 57.27292 52.898268)
        (xy 57.225496 52.924591)
        (xy 57.208418 52.939252)
        (xy 57.183267 52.958216)
        (xy 57.164482 52.970597)
        (xy 57.12612 53.008957)
        (xy 57.112252 53.021809)
        (xy 57.071101 53.057136)
        (xy 57.057329 53.074928)
        (xy 57.036503 53.098575)
        (xy 54.331043 55.804035)
        (xy 54.250261 55.858011)
        (xy 54.154973 55.876965)
        (xy 54.13544 55.876198)
        (xy 54.121958 55.875137)
        (xy 54.049994 55.869473)
        (xy 53.794933 55.889547)
        (xy 53.546139 55.949278)
        (xy 53.309754 56.047191)
        (xy 53.0916 56.180876)
        (xy 52.897043 56.347043)
        (xy 52.730876 56.5416)
        (xy 52.597191 56.759754)
        (xy 52.499278 56.996139)
        (xy 52.439547 57.244933)
        (xy 52.419473 57.499999)
        (xy 51.2005 57.499999)
        (xy 51.2005 55.45258)
        (xy 51.185786 55.410532)
        (xy 51.161218 55.371433)
        (xy 51.128569 55.338783)
        (xy 51.089472 55.314216)
        (xy 51.047419 55.2995)
        (xy 51.045763 55.2995)
        (xy 51.02259 55.2995)
        (xy 50.4495 55.2995)
        (xy 50.354212 55.280546)
        (xy 50.27343 55.22657)
        (xy 50.219454 55.145788)
        (xy 50.2005 55.0505)
        (xy 50.2005 52.511338)
        (xy 50.20775 52.474886)
        (xy 50.207069 52.473386)
        (xy 50.206387 52.467484)
        (xy 50.691233 52.467484)
        (xy 50.698135 52.497858)
        (xy 50.705755 52.638408)
        (xy 50.753286 52.809602)
        (xy 50.755246 52.816659)
        (xy 50.8419 52.980104)
        (xy 50.961663 53.1211)
        (xy 51.108936 53.233054)
        (xy 51.276833 53.310732)
        (xy 51.457503 53.3505)
        (xy 51.457505 53.3505)
        (xy 51.589359 53.3505)
        (xy 51.596113 53.3505)
        (xy 51.73391 53.335514)
        (xy 51.909221 53.276444)
        (xy 52.067736 53.18107)
        (xy 52.202041 53.053849)
        (xy 52.305858 52.90073)
        (xy 52.30867 52.893674)
        (xy 52.354145 52.779539)
        (xy 52.374331 52.728875)
        (xy 52.40426 52.546317)
        (xy 52.399238 52.453683)
        (xy 53.19574 52.453683)
        (xy 53.205755 52.638408)
        (xy 53.253286 52.809602)
        (xy 53.255246 52.816659)
        (xy 53.3419 52.980104)
        (xy 53.461663 53.1211)
        (xy 53.608936 53.233054)
        (xy 53.776833 53.310732)
        (xy 53.957503 53.3505)
        (xy 53.957505 53.3505)
        (xy 54.089359 53.3505)
        (xy 54.096113 53.3505)
        (xy 54.23391 53.335514)
        (xy 54.409221 53.276444)
        (xy 54.567736 53.18107)
        (xy 54.702041 53.053849)
        (xy 54.805858 52.90073)
        (xy 54.80867 52.893674)
        (xy 54.854145 52.779539)
        (xy 54.874331 52.728875)
        (xy 54.90426 52.546317)
        (xy 54.894245 52.361593)
        (xy 54.844754 52.183341)
        (xy 54.7581 52.019896)
        (xy 54.638337 51.8789)
        (xy 54.491064 51.766946)
        (xy 54.397279 51.723556)
        (xy 54.323168 51.689268)
        (xy 54.262943 51.676012)
        (xy 54.142497 51.6495)
        (xy 54.003887 51.6495)
        (xy 53.99718 51.650229)
        (xy 53.997169 51.65023)
        (xy 53.866092 51.664485)
        (xy 53.690777 51.723556)
        (xy 53.532266 51.818928)
        (xy 53.397957 51.946153)
        (xy 53.29414 52.099271)
        (xy 53.225669 52.271122)
        (xy 53.19574 52.453683)
        (xy 52.399238 52.453683)
        (xy 52.394245 52.361593)
        (xy 52.344754 52.183341)
        (xy 52.2581 52.019896)
        (xy 52.138337 51.8789)
        (xy 51.991064 51.766946)
        (xy 51.897279 51.723556)
        (xy 51.823168 51.689268)
        (xy 51.762943 51.676012)
        (xy 51.642497 51.6495)
        (xy 51.503887 51.6495)
        (xy 51.49718 51.650229)
        (xy 51.497169 51.65023)
        (xy 51.366092 51.664485)
        (xy 51.190777 51.723556)
        (xy 51.032266 51.818928)
        (xy 50.897957 51.946153)
        (xy 50.79414 52.099271)
        (xy 50.725669 52.271122)
        (xy 50.69522 52.456855)
        (xy 50.691233 52.467484)
        (xy 50.206387 52.467484)
        (xy 50.2005 52.416571)
        (xy 50.2005 48.120192)
        (xy 53.5495 48.120192)
        (xy 53.589066 48.357297)
        (xy 53.667118 48.584656)
        (xy 53.781528 48.796067)
        (xy 53.929175 48.985764)
        (xy 54.106031 49.148571)
        (xy 54.307272 49.280049)
        (xy 54.527409 49.37661)
        (xy 54.760437 49.43562)
        (xy 54.94001 49.4505)
        (xy 54.945166 49.4505)
        (xy 55.054834 49.4505)
        (xy 55.05999 49.4505)
        (xy 55.239563 49.43562)
        (xy 55.472591 49.37661)
        (xy 55.692728 49.280049)
        (xy 55.893969 49.148571)
        (xy 56.070825 48.985764)
        (xy 56.218472 48.796067)
        (xy 56.332882 48.584656)
        (xy 56.410934 48.357297)
        (xy 56.4505 48.120192)
        (xy 70.5495 48.120192)
        (xy 70.589066 48.357297)
        (xy 70.667118 48.584656)
        (xy 70.781528 48.796067)
        (xy 70.929175 48.985764)
        (xy 71.106031 49.148571)
        (xy 71.307272 49.280049)
        (xy 71.527409 49.37661)
        (xy 71.760437 49.43562)
        (xy 71.94001 49.4505)
        (xy 71.945166 49.4505)
        (xy 72.054834 49.4505)
        (xy 72.05999 49.4505)
        (xy 72.239563 49.43562)
        (xy 72.472591 49.37661)
        (xy 72.692728 49.280049)
        (xy 72.893969 49.148571)
        (xy 73.070825 48.985764)
        (xy 73.218472 48.796067)
        (xy 73.332882 48.584656)
        (xy 73.410934 48.357297)
        (xy 73.4505 48.120192)
        (xy 73.4505 47.879808)
        (xy 73.410934 47.642703)
        (xy 73.332882 47.415344)
        (xy 73.218472 47.203933)
        (xy 73.070825 47.014236)
        (xy 72.893969 46.851429)
        (xy 72.692728 46.719951)
        (xy 72.600559 46.679522)
        (xy 72.472592 46.62339)
        (xy 72.239565 46.56438)
        (xy 72.06512 46.549925)
        (xy 72.065117 46.549924)
        (xy 72.05999 46.5495)
        (xy 71.94001 46.5495)
        (xy 71.934883 46.549924)
        (xy 71.934879 46.549925)
        (xy 71.760434 46.56438)
        (xy 71.527407 46.62339)
        (xy 71.307274 46.71995)
        (xy 71.106032 46.851428)
        (xy 70.929173 47.014238)
        (xy 70.781528 47.203932)
        (xy 70.667119 47.415341)
        (xy 70.589065 47.642705)
        (xy 70.5495 47.879807)
        (xy 70.5495 47.879808)
        (xy 70.5495 48.120192)
        (xy 56.4505 48.120192)
        (xy 56.4505 47.879808)
        (xy 56.410934 47.642703)
        (xy 56.332882 47.415344)
        (xy 56.218472 47.203933)
        (xy 56.070825 47.014236)
        (xy 55.893969 46.851429)
        (xy 55.692728 46.719951)
        (xy 55.600559 46.679522)
        (xy 55.472592 46.62339)
        (xy 55.239565 46.56438)
        (xy 55.06512 46.549925)
        (xy 55.065117 46.549924)
        (xy 55.05999 46.5495)
        (xy 54.94001 46.5495)
        (xy 54.934883 46.549924)
        (xy 54.934879 46.549925)
        (xy 54.760434 46.56438)
        (xy 54.527407 46.62339)
        (xy 54.307274 46.71995)
        (xy 54.106032 46.851428)
        (xy 53.929173 47.014238)
        (xy 53.781528 47.203932)
        (xy 53.667119 47.415341)
        (xy 53.589065 47.642705)
        (xy 53.5495 47.879807)
        (xy 53.5495 47.879808)
        (xy 53.5495 48.120192)
        (xy 50.2005 48.120192)
        (xy 50.2005 45.4495)
        (xy 50.219454 45.354212)
        (xy 50.27343 45.27343)
        (xy 50.354212 45.219454)
        (xy 50.4495 45.2005)
        (xy 76.5505 45.2005)
      )
    )
  )
)
